[
    ".",
    "apple-touch-icon.png",
    "favicon.png",
    "index.html",
    "img/hardenize.svg",
    "css/style.min.css",
    "js/index.js",
    "files-to-cache.json",
    "manifest.webmanifest"
]
